{
  "code": "igniter.pages",
  "name": "Static Pages",
  "description": "Provides static pages and navigation menus for your TastyIgniter application.",
  "version": "v1.6.2",
  "author": "SamPoyigi",
  "icon": {
    "class": "fa fa-files-o",
    "color": "#664500",
    "backgroundColor": "#FECC4D"
  },
  "homepage": "https://tastyigniter.com/marketplace/item/igniter-pages"
}